<svg width="15" height="19" viewBox="0 0 15 19" fill="none" xmlns="http://www.w3.org/2000/svg">
	<path d="M2.5 0C1.83696 0 1.20107 0.250222 0.732233 0.695621C0.263392 1.14102 0 1.74511 0 2.375V16.625C0 17.2549 0.263392 17.859 0.732233 18.3044C1.20107 18.7498 1.83696 19 2.5 19H12.5C13.163 19 13.7989 18.7498 14.2678 18.3044C14.7366 17.859 15 17.2549 15 16.625V2.375C15 1.74511 14.7366 1.14102 14.2678 0.695621C13.7989 0.250222 13.163 0 12.5 0H8.75V7.71875C8.75 7.82902 8.71768 7.93711 8.65666 8.0309C8.59564 8.1247 8.50832 8.2005 8.40451 8.24982C8.30069 8.29913 8.18447 8.32 8.06887 8.3101C7.95327 8.3002 7.84286 8.25991 7.75 8.19375L5.625 6.67969L3.5 8.19375C3.40714 8.25991 3.29673 8.3002 3.18113 8.3101C3.06553 8.32 2.94931 8.29913 2.84549 8.24982C2.74168 8.2005 2.65436 8.1247 2.59334 8.0309C2.53232 7.93711 2.5 7.82902 2.5 7.71875V0ZM7.5 0H3.75V6.53125L5.25 5.4625C5.35818 5.38542 5.48977 5.34375 5.625 5.34375C5.76023 5.34375 5.89182 5.38542 6 5.4625L7.5 6.53125V0Z" fill="white" />
</svg>
