<svg width="34" height="34" viewBox="0 0 34 34" fill="none" xmlns="http://www.w3.org/2000/svg">
<path d="M22.668 32.2294H11.3346C7.0563 32.2294 4.60547 29.7785 4.60547 25.5002V11.6877C4.60547 7.22521 6.87214 4.95854 11.3346 4.95854C11.9155 4.95854 12.3971 5.44021 12.3971 6.02104C12.3971 6.58771 12.6238 7.12604 13.0205 7.52271C13.4171 7.91937 13.9555 8.14604 14.5221 8.14604H19.4805C20.6563 8.14604 21.6055 7.19688 21.6055 6.02104C21.6055 5.44021 22.0871 4.95854 22.668 4.95854C27.1305 4.95854 29.3971 7.22521 29.3971 11.6877V25.5002C29.3971 29.7785 26.9463 32.2294 22.668 32.2294ZM10.4138 7.11188C8.17543 7.29605 6.73047 8.30188 6.73047 11.6877V25.5002C6.73047 28.6452 8.18964 30.1044 11.3346 30.1044H22.668C25.813 30.1044 27.2721 28.6452 27.2721 25.5002V11.6877C27.2721 8.30188 25.8272 7.31021 23.5888 7.11188C23.1072 8.92521 21.4496 10.271 19.4805 10.271H14.5221C13.3888 10.271 12.3263 9.83187 11.5188 9.02437C10.9805 8.48604 10.6121 7.83438 10.4138 7.11188Z" fill="#CAD1DA"/>
<path d="M19.4779 10.2704H14.5195C13.3862 10.2704 12.3237 9.83124 11.5162 9.02374C10.7087 8.21624 10.2695 7.15375 10.2695 6.02042C10.2695 3.68292 12.182 1.77042 14.5195 1.77042H19.4779C20.6112 1.77042 21.6737 2.20959 22.4812 3.01709C23.2887 3.82459 23.7279 4.88708 23.7279 6.02042C23.7279 8.35792 21.8154 10.2704 19.4779 10.2704ZM14.5195 3.89542C13.3437 3.89542 12.3945 4.84458 12.3945 6.02042C12.3945 6.58708 12.6212 7.12541 13.0179 7.52208C13.4145 7.91875 13.9529 8.14542 14.5195 8.14542H19.4779C20.6537 8.14542 21.6029 7.19625 21.6029 6.02042C21.6029 5.45375 21.3762 4.91542 20.9795 4.51875C20.5829 4.12209 20.0445 3.89542 19.4779 3.89542H14.5195Z" fill="#CAD1DA"/>
<path d="M16.9987 19.479H11.332C10.7512 19.479 10.2695 18.9973 10.2695 18.4165C10.2695 17.8356 10.7512 17.354 11.332 17.354H16.9987C17.5795 17.354 18.0612 17.8356 18.0612 18.4165C18.0612 18.9973 17.5795 19.479 16.9987 19.479Z" fill="#CAD1DA"/>
<path d="M22.6654 25.146H11.332C10.7512 25.146 10.2695 24.6644 10.2695 24.0835C10.2695 23.5027 10.7512 23.021 11.332 23.021H22.6654C23.2462 23.021 23.7279 23.5027 23.7279 24.0835C23.7279 24.6644 23.2462 25.146 22.6654 25.146Z" fill="#CAD1DA"/>
</svg>
